Vivado Simulator 2019.2
Copyright 1986-1999, 2001-2019 Xilinx, Inc. All Rights Reserved.
Running: /usr/local/Xilinx_Vitis/Vivado/2019.2/bin/unwrapped/lnx64.o/xelab -wto 6c37cd69fe4747598e1019e0e05a2c31 --incr --debug typical --relax --mt 8 -L xil_defaultlib -L secureip --snapshot tb_vec_mul_behav xil_defaultlib.tb_vec_mul -log elaborate.log 
Using 8 slave threads.
Starting static elaboration
Completed static elaboration
Starting simulation data flow analysis
Completed simulation data flow analysis
Time Resolution for simulation is 1ps
Compiling package std.standard
Compiling package std.textio
Compiling package ieee.std_logic_1164
Compiling package xil_defaultlib.int_types
Compiling package ieee.numeric_std
Compiling architecture behavioral of entity xil_defaultlib.mem_int [mem_int_default]
Compiling architecture behavioral of entity xil_defaultlib.mul_int [mul_int_default]
Compiling architecture behavioral of entity xil_defaultlib.add_int [add_int_default]
Compiling architecture behavioral of entity xil_defaultlib.top_vec_mul [top_vec_mul_default]
Compiling architecture behavioral of entity xil_defaultlib.tb_vec_mul
Built simulation snapshot tb_vec_mul_behav
